…
# Let us compare GDP components for these 3 countries
country_list <- c("United States","India", "Germany")

tidy_GDP_data$IndicatorName[tidy_GDP_data$IndicatorName == "Exports of goods and services"] <- "Exports"
tidy_GDP_data$IndicatorName[tidy_GDP_data$IndicatorName == "General government final consumption expenditure"] <- "Government expenditure"
tidy_GDP_data$IndicatorName[tidy_GDP_data$IndicatorName == "Household consumption expenditure (including Non-profit institutions serving households)"] <- "Household expenditure"
tidy_GDP_data$IndicatorName[tidy_GDP_data$IndicatorName == "Imports of goods and services"] <- "Imports"
tidy_GDP_data$IndicatorName[tidy_GDP_data$IndicatorName == "Gross Domestic Product (GDP)"] <- "GDP"

country_list_GDP_all <- subset(tidy_GDP_data, Country == "United States"|
                                 Country == "India"|
                                 Country == "Germany")
country_list_GDP_all

## # A tibble: 2,550 × 4
##    Country IndicatorName                 year  value
##    <chr>   <chr>                         <chr> <dbl>
##  1 Germany Final consumption expenditure 1970  1031.
##  2 Germany Final consumption expenditure 1971  1090.
##  3 Germany Final consumption expenditure 1972  1147.
##  4 Germany Final consumption expenditure 1973  1189.
##  5 Germany Final consumption expenditure 1974  1204.
##  6 Germany Final consumption expenditure 1975  1252.
##  7 Germany Final consumption expenditure 1976  1298.
##  8 Germany Final consumption expenditure 1977  1346.
##  9 Germany Final consumption expenditure 1978  1396.
## 10 Germany Final consumption expenditure 1979  1445.
## # … with 2,540 more rows

country_list_GDP_components<-subset(country_list_GDP_all, IndicatorName == "Gross capital formation" |
                             IndicatorName == "Exports" |
                             IndicatorName == "Government expenditure" |
                             IndicatorName == "Household expenditure" |
                             IndicatorName == "Imports") %>% 
                             mutate(IndicatorName = factor(IndicatorName, levels = c("Gross capital formation", "Exports", "Government expenditure", "Household expenditure", "Imports")))
country_list_GDP_components

## # A tibble: 750 × 4
##    Country IndicatorName         year  value
##    <chr>   <fct>                 <chr> <dbl>
##  1 Germany Household expenditure 1970   778.
##  2 Germany Household expenditure 1971   820.
##  3 Germany Household expenditure 1972   865.
##  4 Germany Household expenditure 1973   889.
##  5 Germany Household expenditure 1974   888.
##  6 Germany Household expenditure 1975   921.
##  7 Germany Household expenditure 1976   960.
##  8 Germany Household expenditure 1977  1001.
##  9 Germany Household expenditure 1978  1037.
## 10 Germany Household expenditure 1979  1071.
## # … with 740 more rows
…
The % difference between what we calculated as GDP and the GDP figure included in the dataframe

For Germany and the US, there is on average a positive % difference, while for India it is negative. This may be caused by the strength of local currencies against the USD. An important factor that the UN used to calculate the composition of GDP is exchange rate. Furthermore, using a unique exchange rate for 1 year may not be entirely justified and may cause differences between GDP figure and calculated GDP.

GDP_compare <- subset(country_list_GDP_all, IndicatorName == "GDP") %>% 
  pivot_wider(names_from = IndicatorName, values_from = value) %>% 
  add_column(calculated_GDP = GDP_breakdown$GDP) %>% 
  mutate(difference = ((calculated_GDP-GDP)/calculated_GDP),
         difference = scales::percent(difference)) 

GDP_compare

## # A tibble: 150 × 5
##    Country year    GDP calculated_GDP difference
##    <chr>   <chr> <dbl>          <dbl> <chr>     
##  1 Germany 1970  1398.          1437. 2.7135882%
##  2 Germany 1971  1442.          1489. 3.1703301%
##  3 Germany 1972  1504.          1553. 3.1666321%
##  4 Germany 1973  1576.          1617. 2.5456114%
##  5 Germany 1974  1590.          1611. 1.3296327%
##  6 Germany 1975  1576.          1615. 2.3815824%
##  7 Germany 1976  1654.          1694. 2.3506316%
##  8 Germany 1977  1710.          1749. 2.2655946%
##  9 Germany 1978  1761.          1807. 2.5495756%
## 10 Germany 1979  1834.          1891. 3.0133938%
## # … with 140 more rows
…
country_list_GDP_all_new <- subset(tidy_GDP_data, Country == "China"|
                                 Country == "Peru"|
                                 Country == "Spain")

country_list_GDP_components<-subset(country_list_GDP_all_new, IndicatorName == "Gross capital formation" |
                             IndicatorName == "Exports" |
                             IndicatorName == "Government expenditure" |
                             IndicatorName == "Household expenditure" |
                             IndicatorName == "Imports") %>% 
                             mutate(IndicatorName = factor(IndicatorName, levels = c("Gross capital formation", "Exports", "Government expenditure", "Household expenditure", "Imports")))
country_list_GDP_components

## # A tibble: 750 × 4
##    Country IndicatorName         year  value
##    <chr>   <fct>                 <chr> <dbl>
##  1 China   Household expenditure 1970   138.
##  2 China   Household expenditure 1971   144.
##  3 China   Household expenditure 1972   151.
##  4 China   Household expenditure 1973   162.
##  5 China   Household expenditure 1974   165.
##  6 China   Household expenditure 1975   172.
##  7 China   Household expenditure 1976   178.
##  8 China   Household expenditure 1977   183.
##  9 China   Household expenditure 1978   193.
## 10 China   Household expenditure 1979   202.
## # … with 740 more rows

# Subset of data of the three countries 
country_list_GDP_new <- subset(country_list_GDP_components, Country %in% c(country_list_new))
country_list_GDP_new

## # A tibble: 750 × 4
##    Country IndicatorName         year  value
##    <chr>   <fct>                 <chr> <dbl>
##  1 China   Household expenditure 1970   138.
##  2 China   Household expenditure 1971   144.
##  3 China   Household expenditure 1972   151.
##  4 China   Household expenditure 1973   162.
##  5 China   Household expenditure 1974   165.
##  6 China   Household expenditure 1975   172.
##  7 China   Household expenditure 1976   178.
##  8 China   Household expenditure 1977   183.
##  9 China   Household expenditure 1978   193.
## 10 China   Household expenditure 1979   202.
## # … with 740 more rows
…
