…
For each month and year, the dataframe shows the deviation of temperature from the normal (expected).

Select the year and the twelve month variables from the weather dataset. Convert the dataframe from wide to ‘long’ format.Name the new dataframe as tidyweather, name the variable containing the name of the month as month, and the temperature deviation values as delta.

tidyweather <- weather %>% 
               select(Year,Jan,Feb,Mar,Apr,May,Jun,Jul,Aug,Sep,Oct,Nov,Dec) %>% 
               pivot_longer(c(Jan,Feb,Mar,Apr,May,Jun,Jul,Aug,Sep,Oct,Nov,Dec),
                            names_to = "Month",
                            values_to = "delta")

tidyweather

## # A tibble: 1,704 × 3
##     Year Month delta
##    <dbl> <chr> <dbl>
##  1  1880 Jan   -0.35
##  2  1880 Feb   -0.51
##  3  1880 Mar   -0.23
##  4  1880 Apr   -0.3 
##  5  1880 May   -0.06
##  6  1880 Jun   -0.16
##  7  1880 Jul   -0.18
##  8  1880 Aug   -0.26
##  9  1880 Sep   -0.23
## 10  1880 Oct   -0.32
## # … with 1,694 more rows
…
